[{
    "id": 0,
    "mediaType": "string",
    "label": "string",
    "position": 0,
    "disabled": true,
    "types": [
        "string"
    ],
    "file": "string",
    "content": {
        "base64EncodedData": "string",
        "type": "string",
        "name": "string"
    }
}]
